<svg width="320" height="512" xmlns="http://www.w3.org/2000/svg" class="svg-inline--fa fa-rupee-sign fa-w-10">

 <g>
  <title>background</title>
  <rect fill="none" id="canvas_background" height="402" width="582" y="-1" x="-1"/>
 </g>
 <g>
  <title>Layer 1</title>
  <path id="svg_1" d="m308,96c6.627,0 12,-5.373 12,-12l0,-40c0,-6.627 -5.373,-12 -12,-12l-296,0c-6.627,0 -12,5.373 -12,12l0,44.748c0,6.627 5.373,12 12,12l85.28,0c27.308,0 48.261,9.958 60.97,27.252l-146.25,0c-6.627,0 -12,5.373 -12,12l0,40c0,6.627 5.373,12 12,12l158.757,0c-6.217,36.086 -32.961,58.632 -74.757,58.632l-84,0c-6.627,0 -12,5.373 -12,12l0,53.012c0,3.349 1.4,6.546 3.861,8.818l165.052,152.356a12.001,12.001 0 0 0 8.139,3.182l82.562,0c10.924,0 16.166,-13.408 8.139,-20.818l-150.882,-139.276c76.499,-2.34 131.144,-53.395 138.318,-127.906l52.811,0c6.627,0 12,-5.373 12,-12l0,-40c0,-6.627 -5.373,-12 -12,-12l-58.69,0c-3.486,-11.541 -8.28,-22.246 -14.252,-32l72.942,0z" fill="#ffffff"/>
 </g>
</svg>